riscv/src/test.vcd
$date
	Wed Dec 22 22:38:59 2021
$end
$version
	Icarus Verilog
$end
$timescale
	1ps
$end
$scope module dual_port_ram_sync $end
$var wire 6 ! addr_a [5:0] $end
$var wire 6 " addr_b [5:0] $end
$var wire 1 # clk $end
$var wire 8 $ din_a [7:0] $end
$var wire 8 % dout_a [7:0] $end
$var wire 8 & dout_b [7:0] $end
$var wire 1 ' we $end
$var reg 6 ( q_addr_a [5:0] $end
$var reg 6 ) q_addr_b [5:0] $end
$upscope $end
$scope module testbench $end
$var reg 1 * clk $end
$var reg 1 + rst $end
$scope module top $end
$var wire 1 * EXCLK $end
$var wire 1 , Rx $end
$var wire 1 + btnC $end
$var wire 1 - clk $end
$var wire 8 . hci_io_din [7:0] $end
$var wire 1 / hci_io_wr $end
$var wire 8 0 hci_ram_din [7:0] $end
$var wire 1 1 led $end
$var wire 1 2 ram_en $end
$var wire 8 3 ram_dout [7:0] $end
$var wire 17 4 ram_a [16:0] $end
$var wire 1 5 program_finish $end
$var wire 1 6 hci_ram_wr $end
$var wire 8 7 hci_ram_dout [7:0] $end
$var wire 17 8 hci_ram_a [16:0] $end
$var wire 3 9 hci_io_sel [2:0] $end
$var wire 1 : hci_io_full $end
$var wire 1 ; hci_io_en $end
$var wire 8 < hci_io_dout [7:0] $end
$var wire 1 = hci_active_out $end
$var wire 1 > hci_active $end
$var wire 1 ? cpumc_wr $end
$var wire 8 @ cpumc_din [7:0] $end
$var wire 32 A cpumc_a [31:0] $end
$var wire 1 B cpu_rdy $end
$var wire 1 C cpu_ram_wr $end
$var wire 8 D cpu_ram_dout [7:0] $end
$var wire 8 E cpu_ram_din [7:0] $end
$var wire 32 F cpu_ram_a [31:0] $end
$var wire 32 G cpu_dbgreg_dout [31:0] $end
$var wire 1 H Tx $end
$var reg 1 I q_hci_io_en $end
$var reg 1 J rst $end
$var reg 1 K rst_delay $end
$scope module cpu0 $end
$var wire 1 - clk_in $end
$var wire 1 L if_jump $end
$var wire 8 M mem_din [7:0] $end
$var wire 1 B rdy_in $end
$var wire 1 N rst $end
$var wire 1 O rst_in $end
$var wire 32 P wb_rd_value [31:0] $end
$var wire 5 Q wb_rd_address [4:0] $end
$var wire 1 R wb_if_operate_reg $end
$var wire 5 S stall_status [4:0] $end
$var wire 1 T stall_mem $end
$var wire 1 U stall_if $end
$var wire 1 V stall_id $end
$var wire 32 W rs2_value [31:0] $end
$var wire 1 X rs2_read $end
$var wire 5 Y rs2_address [4:0] $end
$var wire 32 Z rs1_value [31:0] $end
$var wire 1 [ rs1_read $end
$var wire 5 \ rs1_address [4:0] $end
$var wire 32 ] pc_jump [31:0] $end
$var wire 1 ^ pc_enable $end
$var wire 32 _ pc [31:0] $end
$var wire 1 C mem_wr $end
$var wire 32 ` mem_wb_rd_value [31:0] $end
$var wire 5 a mem_wb_rd_address [4:0] $end
$var wire 1 b mem_wb_if_operate_reg $end
$var wire 32 c mem_target_data_in [31:0] $end
$var wire 3 d mem_status [2:0] $end
$var wire 5 e mem_reg_address [4:0] $end
$var wire 6 f mem_op [5:0] $end
$var wire 3 g mem_mc_width [2:0] $end
$var wire 32 h mem_mc_target_data [31:0] $end
$var wire 1 i mem_mc_read_or_write $end
$var wire 1 j mem_mc_enable $end
$var wire 32 k mem_mc_address [31:0] $end
$var wire 8 l mem_dout [7:0] $end
$var wire 32 m mem_a [31:0] $end
$var wire 32 n mem_MEM_address [31:0] $end
$var wire 1 o mc_to_mem_enable $end
$var wire 32 p mc_mem_data [31:0] $end
$var wire 1 q mc_mem_busy $end
$var wire 1 r mc_inst_enable_out $end
$var wire 1 s mc_inst_enable $end
$var wire 32 t mc_inst_data [31:0] $end
$var wire 1 u mc_inst_busy $end
$var wire 32 v mc_inst_address_out [31:0] $end
$var wire 1 w load_or_not $end
$var wire 1 : io_buffer_full $end
$var wire 32 x if_pc [31:0] $end
$var wire 32 y if_inst [31:0] $end
$var wire 32 z id_pc_in [31:0] $end
$var wire 32 { id_inst_in [31:0] $end
$var wire 32 | id_ex_rs2_value [31:0] $end
$var wire 32 } id_ex_rs1_value [31:0] $end
$var wire 5 ~ id_ex_rd_address [4:0] $end
$var wire 32 !" id_ex_pc [31:0] $end
$var wire 6 "" id_ex_op [5:0] $end
$var wire 32 #" id_ex_imm [31:0] $end
$var wire 1 $" id_ex_if_operate_reg $end
$var wire 32 %" id_ex_branch_offset_in [31:0] $end
$var wire 32 &" id_ex_branch_address [31:0] $end
$var wire 1 '" icache_inst_read_out $end
$var wire 1 (" icache_inst_enable_out $end
$var wire 32 )" icache_inst_data_out [31:0] $end
$var wire 32 *" icache_inst_address_out [31:0] $end
$var wire 32 +" ex_rs2_value [31:0] $end
$var wire 32 ," ex_rs1_value [31:0] $end
$var wire 5 -" ex_rd_address [4:0] $end
$var wire 32 ." ex_pc [31:0] $end
$var wire 6 /" ex_op [5:0] $end
$var wire 32 0" ex_mem_target_data_in [31:0] $end
$var wire 3 1" ex_mem_status [2:0] $end
$var wire 5 2" ex_mem_reg_address [4:0] $end
$var wire 6 3" ex_mem_op [5:0] $end
$var wire 32 4" ex_mem_MEM_address [31:0] $end
$var wire 1 5" ex_jump $end
$var wire 32 6" ex_imm [31:0] $end
$var wire 1 7" ex_forward_or_not $end
$var wire 32 8" ex_branch_offset_in [31:0] $end
$var wire 32 9" ex_branch_address [31:0] $end
$var wire 32 :" dbgreg_dout [31:0] $end
$scope module ex0 $end
$var wire 1 N rst $end
$var wire 32 ;" rs2_value_in [31:0] $end
$var wire 32 <" rs1_value_in [31:0] $end
$var wire 5 =" rd_address_in [4:0] $end
$var wire 32 >" pc_in [31:0] $end
$var wire 6 ?" op_in [5:0] $end
$var wire 32 @" imm_in [31:0] $end
$var wire 32 A" branch_offset_in [31:0] $end
$var wire 32 B" branch_address_in [31:0] $end
$var reg 1 w Load_or_not $end
$var reg 1 7" ex_forward_or_not $end
$var reg 1 5" jump_or_not $end
$var reg 32 C" mem_address_out [31:0] $end
$var reg 6 D" op_out [5:0] $end
$var reg 32 E" pc_jump_out [31:0] $end
$var reg 5 F" reg_address_out [4:0] $end
$var reg 3 G" status_out [2:0] $end
$var reg 32 H" target_data_out [31:0] $end
$var integer 32 I" fp [31:0] $end
$upscope $end
$scope module ex_mem0 $end
$var wire 1 - clk $end
$var wire 32 J" mem_address_in [31:0] $end
$var wire 6 K" op_in [5:0] $end
$var wire 5 L" reg_address_in [4:0] $end
$var wire 1 N rst $end
$var wire 3 M" status_in [2:0] $end
$var wire 32 N" target_data_in [31:0] $end
$var wire 5 O" stall_in [4:0] $end
$var reg 32 P" mem_address_out [31:0] $end
$var reg 6 Q" op_out [5:0] $end
$var reg 5 R" reg_address_out [4:0] $end
$var reg 3 S" status_out [2:0] $end
$var reg 32 T" target_data_out [31:0] $end
$upscope $end
$scope module icache0 $end
$var wire 1 - clk_in $end
$var wire 32 U" inst_address_out [31:0] $end
$var wire 1 N rst_in $end
$var wire 1 r inst_read_in $end
$var wire 1 s inst_enable_in $end
$var wire 32 V" inst_data_in [31:0] $end
$var wire 1 u inst_busy_in $end
$var wire 32 W" inst_address_in [31:0] $end
$var reg 128 X" icache_valid [127:0] $end
$var reg 32 Y" inst_data_out [31:0] $end
$var reg 1 (" inst_enable_out $end
$var reg 1 '" inst_read_out $end
$var integer 32 Z" i [31:0] $end
$upscope $end
$scope module id0 $end
$var wire 1 w Load_or_not $end
$var wire 5 [" ex_forward_address [4:0] $end
$var wire 1 7" ex_forward_or_not $end
$var wire 32 \" ex_forward_value [31:0] $end
$var wire 1 N rst $end
$var wire 32 ]" rs2_value_in [31:0] $end
$var wire 32 ^" rs1_value_in [31:0] $end
$var wire 32 _" pc_in [31:0] $end
$var wire 7 `" op [6:0] $end
$var wire 32 a" inst_in [31:0] $end
$var wire 7 b" func7 [6:0] $end
$var wire 3 c" func3 [2:0] $end
$var wire 32 d" MEM_forward_value [31:0] $end
$var wire 1 b MEM_forward_or_not $end
$var wire 5 e" MEM_forward_address [4:0] $end
$var reg 32 f" branch_address_out [31:0] $end
$var reg 32 g" branch_offset_out [31:0] $end
$var reg 1 V id_stall_out $end
$var reg 1 h" id_stall_out1 $end
$var reg 1 i" id_stall_out2 $end
$var reg 1 $" if_operate_reg_out $end
$var reg 32 j" imm_out [31:0] $end
$var reg 6 k" op_out [5:0] $end
$var reg 32 l" pc_out [31:0] $end
$var reg 5 m" rd_address_out [4:0] $end
$var reg 5 n" rs1_addr_out [4:0] $end
$var reg 1 [ rs1_read_out $end
$var reg 32 o" rs1_value_out [31:0] $end
$var reg 5 p" rs2_addr_out [4:0] $end
$var reg 1 X rs2_read_out $end
$var reg 32 q" rs2_value_out [31:0] $end
$upscope $end
$scope module id_ex0 $end
$var wire 32 r" branch_address_in [31:0] $end
$var wire 32 s" branch_offset_in [31:0] $end
$var wire 1 - clk $end
$var wire 32 t" imm_in [31:0] $end
$var wire 1 L jump_or_not $end
$var wire 6 u" op_in [5:0] $end
$var wire 32 v" pc_in [31:0] $end
$var wire 5 w" rd_address_in [4:0] $end
$var wire 32 x" rs1_value_in [31:0] $end
$var wire 32 y" rs2_value_in [31:0] $end
$var wire 1 N rst $end
$var wire 5 z" stall_in [4:0] $end
$var reg 32 {" branch_address_out [31:0] $end
$var reg 32 |" branch_offset_out [31:0] $end
$var reg 32 }" imm_out [31:0] $end
$var reg 6 ~" op_out [5:0] $end
$var reg 32 !# pc_out [31:0] $end
$var reg 5 "# rd_address_out [4:0] $end
$var reg 32 ## rs1_value_out [31:0] $end
$var reg 32 $# rs2_value_out [31:0] $end
$upscope $end
$scope module if0 $end
$var wire 1 (" mc_inst_enable_in $end
$var wire 32 %# mc_inst_value_in [31:0] $end
$var wire 1 N rst $end
$var wire 1 U stall_or_not $end
$var wire 5 &# stall_in [4:0] $end
$var wire 32 '# pc_in [31:0] $end
$var wire 1 ^ pc_enable_in $end
$var reg 32 (# inst_out [31:0] $end
$var reg 32 )# mc_inst_add_out [31:0] $end
$var reg 1 r mc_inst_enable_out $end
$var reg 32 *# pc_out [31:0] $end
$upscope $end
$scope module if_if0 $end
$var wire 1 - clk $end
$var wire 32 +# inst_in_from_if [31:0] $end
$var wire 1 L jump_or_not $end
$var wire 32 ,# pc_in_from_if [31:0] $end
$var wire 1 N rst $end
$var wire 5 -# stall_in [4:0] $end
$var reg 32 .# inst_out_to_id [31:0] $end
$var reg 32 /# pc_out_to_id [31:0] $end
$upscope $end
$scope module mem0 $end
$var wire 32 0# mem_address_in [31:0] $end
$var wire 6 1# op_in [5:0] $end
$var wire 5 2# reg_address_in [4:0] $end
$var wire 1 N rst $end
$var wire 3 3# status_in [2:0] $end
$var wire 32 4# target_data_in [31:0] $end
$var wire 32 5# mc_mem_data_in [31:0] $end
$var wire 1 q mc_mem_busy_in $end
$var wire 1 u mc_inst_busy_in $end
$var wire 1 o mc_enable_in $end
$var reg 1 b if_operate_reg_out $end
$var reg 32 6# mc_mem_address_out [31:0] $end
$var reg 1 j mc_mem_enable_out $end
$var reg 1 i mc_read_or_write_out $end
$var reg 32 7# mc_target_data_out [31:0] $end
$var reg 3 8# mc_width_out [2:0] $end
$var reg 1 T mem_stall_out $end
$var reg 5 9# rd_address_out [4:0] $end
$var reg 32 :# rd_value_out [31:0] $end
$upscope $end
$scope module mem_wb0 $end
$var wire 1 - clk $end
$var wire 1 b if_operate_reg_in $end
$var wire 5 ;# rd_address_in [4:0] $end
$var wire 32 <# rd_value_in [31:0] $end
$var wire 1 N rst $end
$var wire 5 =# stall_in [4:0] $end
$var reg 1 R if_operate_reg_out $end
$var reg 5 ># rd_address_out [4:0] $end
$var reg 32 ?# rd_value_out [31:0] $end
$upscope $end
$scope module memory_control0 $end
$var wire 1 - clk_in $end
$var wire 32 @# inst_address_in [31:0] $end
$var wire 1 '" inst_enable_in $end
$var wire 1 L jump_or_not_in $end
$var wire 32 A# mem_address_in [31:0] $end
$var wire 1 j mem_enable_in $end
$var wire 1 i mem_read_or_write_in $end
$var wire 32 B# mem_target_data_in [31:0] $end
$var wire 3 C# mem_width_in [2:0] $end
$var wire 8 D# ram_data_in [7:0] $end
$var wire 1 N rst_in $end
$var wire 1 C ram_wr $end
$var wire 8 E# ram_data_out [7:0] $end
$var wire 32 F# ram_address_out [31:0] $end
$var wire 3 G# number [2:0] $end
$var wire 1 : hci_if_full $end
$var wire 32 H# address [31:0] $end
$var reg 128 I# dcache_valid [127:0] $end
$var reg 2 J# hci_status [1:0] $end
$var reg 1 u inst_busy_out $end
$var reg 32 K# inst_data_out [31:0] $end
$var reg 1 s inst_enable_out $end
$var reg 1 q mem_busy_out $end
$var reg 1 o mem_enable_out $end
$var reg 32 L# mem_rdata_out [31:0] $end
$var reg 3 M# status [2:0] $end
$var integer 32 N# i [31:0] $end
$upscope $end
$scope module pc_reg0 $end
$var wire 1 - clk $end
$var wire 1 L jump_or_not $end
$var wire 32 O# pc_in [31:0] $end
$var wire 1 N rst $end
$var wire 5 P# stall_in [4:0] $end
$var reg 1 ^ pc_enable $end
$var reg 32 Q# pc_out [31:0] $end
$var reg 32 R# pc_store [31:0] $end
$upscope $end
$scope module register0 $end
$var wire 1 - clk $end
$var wire 1 [ read_enable1 $end
$var wire 1 X read_enable2 $end
$var wire 5 S# rs1_address [4:0] $end
$var wire 5 T# rs2_address [4:0] $end
$var wire 1 N rst $end
$var wire 5 U# write_address [4:0] $end
$var wire 1 R write_enable $end
$var wire 32 V# write_value [31:0] $end
$var reg 32 W# rs1_value [31:0] $end
$var reg 32 X# rs2_value [31:0] $end
$var integer 32 Y# i [31:0] $end
$upscope $end
$scope module stall_control0 $end
$var wire 1 - clk $end
$var wire 1 N rst $end
$var wire 1 V stall_from_id $end
$var wire 1 U stall_from_if $end
$var wire 1 T stall_from_mem $end
$var reg 5 Z# stall_out [4:0] $end
$upscope $end
$upscope $end
$scope module hci0 $end
$var wire 1 - clk $end
$var wire 32 [# cpu_dbgreg_din [31:0] $end
$var wire 8 \# io_din [7:0] $end
$var wire 1 ; io_en $end
$var wire 1 : io_full $end
$var wire 3 ]# io_sel [2:0] $end
$var wire 1 / io_wr $end
$var wire 17 ^# ram_a [16:0] $end
$var wire 8 _# ram_din [7:0] $end
$var wire 8 `# ram_dout [7:0] $end
$var wire 1 J rst $end
$var wire 1 , rx $end
$var wire 1 a# tx_full $end
$var wire 1 H tx $end
$var wire 1 b# rx_empty $end
$var wire 8 c# rd_data [7:0] $end
$var wire 1 d# parity_err $end
$var wire 8 e# io_in_rd_data [7:0] $end
$var wire 1 f# io_in_full $end
$var wire 1 g# io_in_empty $end
$var wire 8 h# io_dout [7:0] $end
$var wire 32 i# d_cpu_cycle_cnt [31:0] $end
$var wire 1 = active $end
$var reg 17 j# d_addr [16:0] $end
$var reg 3 k# d_decode_cnt [2:0] $end
$var reg 2 l# d_err_code [1:0] $end
$var reg 17 m# d_execute_cnt [16:0] $end
$var reg 8 n# d_io_dout [7:0] $end
$var reg 8 o# d_io_in_wr_data [7:0] $end
$var reg 1 p# d_io_in_wr_en $end
$var reg 1 q# d_program_finish $end
$var reg 5 r# d_state [4:0] $end
$var reg 8 s# d_tx_data [7:0] $end
$var reg 1 t# d_wr_en $end
$var reg 1 u# io_in_rd_en $end
$var reg 1 5 program_finish $end
$var reg 17 v# q_addr [16:0] $end
$var reg 32 w# q_cpu_cycle_cnt [31:0] $end
$var reg 3 x# q_decode_cnt [2:0] $end
$var reg 2 y# q_err_code [1:0] $end
$var reg 17 z# q_execute_cnt [16:0] $end
$var reg 8 {# q_io_dout [7:0] $end
$var reg 1 |# q_io_en $end
$var reg 8 }# q_io_in_wr_data [7:0] $end
$var reg 1 ~# q_io_in_wr_en $end
$var reg 5 !$ q_state [4:0] $end
$var reg 8 "$ q_tx_data [7:0] $end
$var reg 1 #$ q_wr_en $end
$var reg 1 6 ram_wr $end
$var reg 1 $$ rd_en $end
$scope module io_in_fifo $end
$var wire 10 %$ addr_bits_wide_1 [9:0] $end
$var wire 1 - clk $end
$var wire 1 &$ d_empty $end
$var wire 1 '$ d_full $end
$var wire 1 g# empty $end
$var wire 1 f# full $end
$var wire 8 ($ rd_data [7:0] $end
$var wire 1 u# rd_en $end
$var wire 1 )$ rd_en_prot $end
$var wire 1 J reset $end
$var wire 8 *$ wr_data [7:0] $end
$var wire 1 ~# wr_en $end
$var wire 1 +$ wr_en_prot $end
$var wire 10 ,$ d_wr_ptr [9:0] $end
$var wire 10 -$ d_rd_ptr [9:0] $end
$var wire 8 .$ d_data [7:0] $end
$var reg 1 /$ q_empty $end
$var reg 1 0$ q_full $end
$var reg 10 1$ q_rd_ptr [9:0] $end
$var reg 10 2$ q_wr_ptr [9:0] $end
$upscope $end
$scope module uart_blk $end
$var wire 1 - clk $end
$var wire 1 3$ d_rx_parity_err $end
$var wire 1 d# parity_err $end
$var wire 1 $$ rd_en $end
$var wire 1 J reset $end
$var wire 1 , rx $end
$var wire 8 4$ tx_data [7:0] $end
$var wire 1 #$ wr_en $end
$var wire 1 a# tx_full $end
$var wire 8 5$ tx_fifo_rd_data [7:0] $end
$var wire 1 6$ tx_fifo_empty $end
$var wire 1 7$ tx_done_tick $end
$var wire 1 H tx $end
$var wire 1 8$ rx_parity_err $end
$var wire 8 9$ rx_fifo_wr_data [7:0] $end
$var wire 1 b# rx_empty $end
$var wire 1 :$ rx_done_tick $end
$var wire 8 ;$ rx_data [7:0] $end
$var wire 1 <$ baud_clk_tick $end
$var reg 1 =$ q_rx_parity_err $end
$scope module uart_baud_clk_blk $end
$var wire 1 - clk $end
$var wire 1 J reset $end
$var wire 16 >$ d_cnt [15:0] $end
$var wire 1 <$ baud_clk_tick $end
$var reg 16 ?$ q_cnt [15:0] $end
$upscope $end
$scope module uart_rx_blk $end
$var wire 1 <$ baud_clk_tick $end
$var wire 1 - clk $end
$var wire 1 J reset $end
$var wire 1 , rx $end
$var wire 8 @$ rx_data [7:0] $end
$var wire 1 :$ rx_done_tick $end
$var wire 1 8$ parity_err $end
$var reg 8 A$ d_data [7:0] $end
$var reg 3 B$ d_data_bit_idx [2:0] $end
$var reg 1 C$ d_done_tick $end
$var reg 4 D$ d_oversample_tick_cnt [3:0] $end
$var reg 1 E$ d_parity_err $end
$var reg 5 F$ d_state [4:0] $end
$var reg 8 G$ q_data [7:0] $end
$var reg 3 H$ q_data_bit_idx [2:0] $end
$var reg 1 :$ q_done_tick $end
$var reg 4 I$ q_oversample_tick_cnt [3:0] $end
$var reg 1 8$ q_parity_err $end
$var reg 1 J$ q_rx $end
$var reg 5 K$ q_state [4:0] $end
$upscope $end
$scope module uart_rx_fifo $end
$var wire 3 L$ addr_bits_wide_1 [2:0] $end
$var wire 1 - clk $end
$var wire 1 M$ d_empty $end
$var wire 1 N$ d_full $end
$var wire 1 b# empty $end
$var wire 1 O$ full $end
$var wire 8 P$ rd_data [7:0] $end
$var wire 1 $$ rd_en $end
$var wire 1 Q$ rd_en_prot $end
$var wire 1 J reset $end
$var wire 8 R$ wr_data [7:0] $end
$var wire 1 :$ wr_en $end
$var wire 1 S$ wr_en_prot $end
$var wire 3 T$ d_wr_ptr [2:0] $end
$var wire 3 U$ d_rd_ptr [2:0] $end
$var wire 8 V$ d_data [7:0] $end
$var reg 1 W$ q_empty $end
$var reg 1 X$ q_full $end
$var reg 3 Y$ q_rd_ptr [2:0] $end
$var reg 3 Z$ q_wr_ptr [2:0] $end
$upscope $end
$scope module uart_tx_blk $end
$var wire 1 <$ baud_clk_tick $end
$var wire 1 - clk $end
$var wire 1 J reset $end
$var wire 1 H tx $end
$var wire 1 7$ tx_done_tick $end
$var wire 1 [$ tx_start $end
$var wire 8 \$ tx_data [7:0] $end
$var reg 4 ]$ d_baud_clk_tick_cnt [3:0] $end
$var reg 8 ^$ d_data [7:0] $end
$var reg 3 _$ d_data_bit_idx [2:0] $end
$var reg 1 `$ d_parity_bit $end
$var reg 5 a$ d_state [4:0] $end
$var reg 1 b$ d_tx $end
$var reg 1 c$ d_tx_done_tick $end
$var reg 4 d$ q_baud_clk_tick_cnt [3:0] $end
$var reg 8 e$ q_data [7:0] $end
$var reg 3 f$ q_data_bit_idx [2:0] $end
$var reg 1 g$ q_parity_bit $end
$var reg 5 h$ q_state [4:0] $end
$var reg 1 i$ q_tx $end
$var reg 1 7$ q_tx_done_tick $end
$upscope $end
$scope module uart_tx_fifo $end
$var wire 10 j$ addr_bits_wide_1 [9:0] $end
$var wire 1 - clk $end
$var wire 1 k$ d_empty $end
$var wire 1 l$ d_full $end
$var wire 1 6$ empty $end
$var wire 1 a# full $end
$var wire 8 m$ rd_data [7:0] $end
$var wire 1 7$ rd_en $end
$var wire 1 n$ rd_en_prot $end
$var wire 1 J reset $end
$var wire 8 o$ wr_data [7:0] $end
$var wire 1 #$ wr_en $end
$var wire 1 p$ wr_en_prot $end
$var wire 10 q$ d_wr_ptr [9:0] $end
$var wire 10 r$ d_rd_ptr [9:0] $end
$var wire 8 s$ d_data [7:0] $end
$var reg 1 t$ q_empty $end
$var reg 1 u$ q_full $end
$var reg 10 v$ q_rd_ptr [9:0] $end
$var reg 10 w$ q_wr_ptr [9:0] $end
$upscope $end
$upscope $end
$upscope $end
$scope module ram0 $end
$var wire 17 x$ a_in [16:0] $end
$var wire 1 - clk_in $end
$var wire 8 y$ d_in [7:0] $end
$var wire 1 2 en_in $end
$var wire 1 z$ r_nw_in $end
$var wire 1 {$ ram_bram_we $end
$var wire 8 |$ ram_bram_dout [7:0] $end
$var wire 8 }$ d_out [7:0] $end
$scope module ram_bram $end
$var wire 17 ~$ addr_a [16:0] $end
$var wire 1 - clk $end
$var wire 8 !% din_a [7:0] $end
$var wire 8 "% dout_a [7:0] $end
$var wire 1 {$ we $end
$var reg 17 #% q_addr_a [16:0] $end
$var integer 32 $% i [31:0] $end
$upscope $end
$upscope $end
$upscope $end
$upscope $end
$enddefinitions $end
#0
$dumpvars
b100000000000000000 $%
bx #%
bx "%
bx !%
bx ~$
bx }$
bx |$
0{$
1z$
bx y$
bx x$
bx w$
bx v$
xu$
xt$
bx s$
bx r$
bx q$
xp$
bx o$
0n$
bx m$
xl$
xk$
b1 j$
1i$
b1 h$
0g$
b0 f$
b0 e$
b0 d$
0c$
1b$
b1 a$
0`$
b0 _$
b0 ^$
b0 ]$
bx \$
x[$
bx Z$
bx Y$
xX$
xW$
bx V$
bx U$
bx T$
0S$
b0 R$
0Q$
bx P$
xO$
xN$
xM$
b1 L$
b1 K$
1J$
b0 I$
b0 H$
b0 G$
b1 F$
0E$
b0 D$
0C$
b0 B$
b0 A$
b0 @$
b0 ?$
b1 >$
0=$
0<$
bx ;$
0:$
b0 9$
08$
07$
x6$
bx 5$
bx 4$
03$
bx 2$
bx 1$
x0$
x/$
bx .$
bx -$
bx ,$
x+$
bx *$
0)$
bx ($
x'$
x&$
b1 %$
0$$
x#$
bx "$
bx !$
x~#
bx }#
x|#
bx {#
bx z#
bx y#
bx x#
bx w#
bx v#
0u#
0t#
b0 s#
bx r#
0q#
0p#
b0 o#
b0 n#
bx m#
bx l#
bx k#
bx j#
bx i#
bx h#
xg#
xf#
bx e#
0d#
bx c#
xb#
xa#
bx `#
bx _#
bx ^#
bx ]#
bx \#
b1 [#
b0 Z#
bx Y#
b0 X#
b0 W#
bx V#
bx U#
b0 T#
b0 S#
bx R#
bx Q#
b0 P#
b0 O#
b10000000 N#
bx M#
bx L#
bx K#
bx J#
b0 I#
b0 H#
b0 G#
bx F#
bx E#
bx D#
b0 C#
b0 B#
b0 A#
b0 @#
bx ?#
bx >#
b0 =#
b0 <#
b0 ;#
b0 :#
b0 9#
b0 8#
b0 7#
b0 6#
bx 5#
bx 4#
bx 3#
bx 2#
bx 1#
bx 0#
bx /#
bx .#
b0 -#
b0 ,#
b0 +#
b0 *#
b0 )#
b0 (#
bx '#
b0 &#
b0 %#
bx $#
bx ##
bx "#
bx !#
bx ~"
bx }"
bx |"
bx {"
b0 z"
b0 y"
b0 x"
b0 w"
b0 v"
b0 u"
b0 t"
b0 s"
b0 r"
b0 q"
b0 p"
b0 o"
b0 n"
b0 m"
b0 l"
b0 k"
b0 j"
0i"
0h"
b0 g"
b0 f"
b0 e"
b0 d"
bx c"
bx b"
bx a"
bx `"
bx _"
b0 ^"
b0 ]"
b0 \"
b0 ["
b10000000 Z"
b0 Y"
b0 X"
b0 W"
bx V"
b0 U"
bx T"
bx S"
bx R"
bx Q"
bx P"
b0 O"
b0 N"
b0 M"
b0 L"
b0 K"
b0 J"
b10 I"
b0 H"
b0 G"
b0 F"
b0 E"
b0 D"
b0 C"
bx B"
bx A"
bx @"
bx ?"
bx >"
bx ="
bx <"
bx ;"
b1 :"
bx 9"
bx 8"
07"
bx 6"
05"
b0 4"
b0 3"
b0 2"
b0 1"
b0 0"
bx /"
bx ."
bx -"
bx ,"
bx +"
b0 *"
b0 )"
0("
0'"
b0 &"
b0 %"
0$"
b0 #"
b0 ""
b0 !"
b0 ~
b0 }
b0 |
bx {
bx z
b0 y
b0 x
0w
b0 v
xu
bx t
xs
0r
xq
bx p
xo
bx n
bx m
bx l
b0 k
0j
0i
b0 h
b0 g
bx f
bx e
bx d
bx c
0b
b0 a
b0 `
bx _
x^
b0 ]
b0 \
0[
b0 Z
b0 Y
0X
b0 W
0V
xU
0T
b0 S
xR
bx Q
bx P
1O
1N
bx M
0L
1K
1J
xI
1H
b1 G
bx F
bx E
bx D
0C
1B
bx A
bx @
0?
0>
x=
bx <
x;
x:
bx 9
bx 8
bx 7
06
x5
bx 4
bx 3
x2
01
bx 0
0/
bx .
0-
z,
1+
0*
bx )
bx (
z'
bx &
bx %
bz $
z#
bz "
bz !
$end
#1000
b0 .
b0 \#
b0 @
b0 y$
b0 !%
0;
12
b0 D
b0 l
b0 E#
b0 9
b0 ]#
b0 4
b0 x$
b0 ~$
1&$
0'$
0N$
1M$
1k$
0l$
0U
b0 b"
b0 c"
b0 `"
b0 A
b0 ,$
b0 -$
b0 T$
b0 U$
0[$
b0 q$
b0 r$
0+$
0p$
b0 l#
b0 j#
b0 m#
b0 k#
b1 r#
b0 i#
0^
b0 R#
b0 {
b0 a"
b0 .#
b0 z
b0 _"
b0 /#
b0 8"
b0 A"
b0 |"
b0 9"
b0 B"
b0 {"
b0 6"
b0 @"
b0 }"
b0 -"
b0 ="
b0 "#
b0 +"
b0 ;"
b0 $#
b0 ,"
b0 <"
b0 ##
b0 ."
b0 >"
b0 !#
b0 /"
b0 ?"
b0 ~"
b0 e
b0 R"
b0 2#
b0 c
b0 T"
b0 4#
b0 n
b0 P"
b0 0#
b0 d
b0 S"
b0 3#
b0 f
b0 Q"
b0 1#
b0 P
b0 ?#
b0 V#
b0 Q
b0 >#
b0 U#
0R
0o
0s
0q
0u
b0 F
b0 m
b0 F#
b0 M#
b11 J#
0f#
00$
1g#
1/$
b0 2$
b0 1$
0O$
0X$
1b#
1W$
b0 Z$
b0 Y$
0:
0a#
0u$
16$
1t$
b0 w$
b0 v$
b0 <
b0 h#
b0 {#
b0 w#
0|#
b0 }#
b0 *$
0~#
0#$
b0 "$
b0 4$
b0 o$
b0 y#
b0 8
b0 ^#
b0 v#
b0 z#
b0 x#
1=
b1 !$
b100000 Y#
1-
1*
#2000
0-
0*
#3000
b110111 E
b110111 M
b110111 D#
b110111 0
b110111 _#
b110111 3
b110111 }$
0I
b110111 |$
b110111 "%
b0 #%
b100000 Y#
1-
1*
#4000
0-
0*
#5000
b100000 Y#
1-
1*
#6000
0-
0*
#7000
b100000 Y#
1-
1*
#8000
0-
0*
#9000
b100000 Y#
1-
1*
#10000
0-
0*
#11000
b100000 Y#
1-
1*
#12000
0-
0*
#13000
b100000 Y#
1-
1*
#14000
0-
0*
#15000
b100000 Y#
1-
1*
#16000
0-
0*
#17000
b100000 Y#
1-
1*
#18000
0-
0*
#19000
b100000 Y#
1-
1*
#20000
0-
0*
#21000
b100000 Y#
1-
1*
#22000
0-
0*
#23000
b100000 Y#
1-
1*
#24000
0-
0*
#25000
b100000 Y#
1-
1*
#26000
0-
0*
#27000
b100000 Y#
1-
1*
#28000
0-
0*
#29000
b100000 Y#
1-
1*
#30000
0-
0*
#31000
b100000 Y#
1-
1*
#32000
0-
0*
#33000
b100000 Y#
1-
1*
#34000
0-
0*
#35000
b100000 Y#
1-
1*
#36000
0-
0*
#37000
b100000 Y#
1-
1*
#38000
0-
0*
#39000
b100000 Y#
1-
1*
#40000
0-
0*
#41000
b100000 Y#
1-
1*
#42000
0-
0*
#43000
b100000 Y#
1-
1*
#44000
0-
0*
#45000
b100000 Y#
1-
1*
#46000
0-
0*
#47000
b100000 Y#
1-
1*
#48000
0-
0*
#49000
b100000 Y#
1-
1*
#50000
0+
0-
0*
#51000
0K
b100000 Y#
1-
1*
#52000
0-
0*
#53000
b1 1"
b1 G"
b1 M"
xN
b0x G
b0x :"
b0x [#
xO
0J
b100000 Y#
1-
1*
#54000
0-
0*
#55000
b100 G#
0N
b0 G
b0 :"
b0 [#
b11 S
b11 O"
b11 z"
b11 &#
b11 -#
b11 =#
b11 P#
b11 Z#
1'"
0O
1b
1U
1r
b10 >$
05
b1 d
b1 S"
b1 3#
b0 _
b0 '#
b0 Q#
b100 R#
1^
b1 ?$
zJ$
b100000 Y#
1-
1*
#56000
0-
0*
#57000
b1 9
b1 ]#
b1 4
b1 x$
b1 ~$
b1 A
b11 >$
1R
1q
b1 F
b1 m
b1 F#
b1 M#
b10 ?$
1-
1*
#58000
0-
0*
#59000
b10 9
b10 ]#
b10 4
b10 x$
b10 ~$
b1 E
b1 M
b1 D#
b10 A
b1 0
b1 _#
b1 3
b1 }$
b100 >$
b10 F
b10 m
b10 F#
b10 M#
b1 |$
b1 "%
b1 #%
b11 ?$
1-
1*
